name,programme,email,staffSiteLink,siteName,siteLink,mediaLink,bio,role,collaborators,school,project,tags
Miriam Ross,Film,Miriam.Ross@vuw.ac.nz,https://www.victoria.ac.nz/seftms/about/staff/miriam-ross,,https://miriamruthross.wordpress.com/,https://www.victoria.ac.nz/images/staffpics/miriam-ross.jpg,"Miriam's research areas lie in global cinema dynamics with an emphasis on production, distribution and exhibition. She is particularly interested in new technologies and their affect on filmmaking and circulation.",Academic Staff,"Neil Dodgson, Matt Plummer, Raqi Syed",Humanities and Social Sciences,Trash Praxis,python
Lohit Petikam,Engineering and Computer Science,,https://ecs.victoria.ac.nz/Main/GradLohitPetikam,,https://ecs.victoria.ac.nz/Main/Curiosity-thekeytonewideas,https://www.victoria.ac.nz/__data/assets/image/0003/345567/Lohit-Petikam-Profile.jpg,,Masters Student,"Kieran Carnegie, Taehyun Rhee",Central Service Unit,"Colliding Conversations 3,Yasawa Island Virtual Tourism",java
Taehyun Rhee,Computer Graphics,taehyun.rhee@ecs.vuw.ac.nz,http://ecs.victoria.ac.nz/Main/TaehyunRhee,,https://www.dreamflux.io/,http://ecs.victoria.ac.nz/foswiki/pub/Main/TaehyunRhee/TaehyunRhee.jpg,"Taehyun Rhee is an Associate Professor of Faculty of Engineering and Computer Science, Deputy Director of Computational Media Innovation Centre (CMIC), and a founder of Mixed Reality startup dreamflux.",Academic Staff,"Neil Dodgson, Matt Plummer, Raqi Syed, Lohit Petikam, Kieran Carnegie",Engineering and Computer Science,"MRX,Dream Flux","python,java"
Neil Dodgson,Computer Graphics,neil.dodgson@vuw.ac.nz,http://ecs.victoria.ac.nz/Main/NeilDodgson,,http://neildodgson.com/,http://ecs.victoria.ac.nz/foswiki/pub/Main/NeilDodgson/NeilDodgson.jpg,"Neil Dodgson was, for twenty years, head of the Graphics & Interaction Research Group at the University of Cambridge Computer Laboratory. In 2016, he returned to New Zealand to be Programme Director of Victoria's Computer Graphics Programme and to bring skills that complemented the already strong computer graphics research group in Victoria's School of Engineering & Computer Science.",Academic Staff,"Miriam Ross, Matt Plummer, Taehyun Rhee",Central Service Unit,,python
Serdar Aydin,Architecture,Serdar.Aydin@vuw.ac.nz,https://www.victoria.ac.nz/architecture/research/current-phd-research/serdar-aydin,,https://www.researchgate.net/profile/Serdar_Aydin2,https://www.victoria.ac.nz/__data/assets/image/0011/859331/Serdar-Aydin.jpg,"Serdar is a design researcher at DARA and a PhD Cand. at the School of Architecture. His design-research thesis focuses on translating Kashgar heritage, westernmost city in China, into game platforms where engaging experiences are designed and developed with regards to digital realities. ",PhD Student,"Marc Aurel Schnabel,  T. J. Moleta",Architecture,,java
Ryan Sumner,Computer Graphics,,https://ecs.victoria.ac.nz/Main/GradRyanSumner,,http://researcharchive.vuw.ac.nz/xmlui/handle/10063/6343,https://media.licdn.com/mpr/mpr/shrinknp_200_200/AAEAAQAAAAAAAAsYAAAAJDhkNjZhM2NjLTk1MGMtNDQ1Yy1iOTlhLWY2ZmRlYTI4MTM3Mw.jpg,,Masters Student,Kieran Carnegie,Engineering and Computer Science,,"python,java"
Andre Geldenhuis,Learning and Research Technology Team,andre.geldenhuis@vuw.ac.nz,https://www.victoria.ac.nz/its/about/learning-and-research-technology-team,,,https://farm5.staticflickr.com/4569/38167452934_65768aa30f_k.jpg,Andre works with academics and post-graduate students to deliver high-technology research and teaching outcomes and solutions.,Professional Staff,"Matt Plummer, Christian Schott",Engineering and Computer Science,"Colliding Conversations 4,Virtual World Lab",python
Jasim Azhar,Architecture,jasimazhar@hotmail.com,https://www.victoria.ac.nz/architecture/research/current-phd-research/jasim-azhar,,,,,PhD Student,,Architecture,,java
Claudia van Velthooven ,Architecture,claudia.vanvelthooven@live.com,https://www.victoria.ac.nz/explore/postgraduate-programmes/master-of-architecture-professional/people#claudia-van-velthooven,,,https://www.victoria.ac.nz/__data/assets/image/0008/821762/claudia-van-velthooven.jpg,,Masters Student,,Victoria Business School,Yasawa Island Virtual Tourism,"python,java"
Stuart Haselden,Directorate,Stuart.Haselden@vuw.ac.nz,https://www.victoria.ac.nz/its/about#directorate,,,https://www.victoria.ac.nz/its/images/Stu-Haselden.jpg,,Professional Staff,,Other,Colliding Conversations 3,python
Scott Meekings,Architecture,,http://researcharchive.vuw.ac.nz/xmlui/handle/10063/6613,,https://scottmeekings.com/,https://static1.squarespace.com/static/57bba4fec534a51bf9013b32/t/57bcfc01e58c6235ea029169/1472003082676/?format=300w,,Masters Student,Marc Aurel Schnabel,Architecture,,java
James Holth,Architecture,james.r.holth@gmail.com,,,http://www.nzvrara.nz/individuals/james-holth/,http://www.nzvrara.nz/wp-content/uploads/2016/10/13346301_1093667540691662_6547180218512730850_o-1024x1024.jpg,"James Holth is a current student of a Master of Architecture (Professional) degree. He has a strong interest in Virtual Reality and how architecture can use new technologies whilst working in a co-disciplinary fashion with existing digital fields, such as the game industry. His thesis explores the use of virtual reality as an instrument to effect the perception of inhabitants within a digital world.",Masters Student,,Engineering and Computer Science,,"python,java"
T. J. Moleta,Architecture,tane.moleta@vuw.ac.nz,https://www.victoria.ac.nz/architecture/about/staff/tane-moleta,,https://www.researchgate.net/profile/Tane_Moleta,,,Academic Staff,"James De Bono, Marc Aurel Schnabel",Architecture,,python
James De Bono,Architecture,jamman52@hotmail.com,,,http://www.therookies.co/people/james-charles-de-bono/,https://www.linkedin.com/in/james-de-bono-528ab4141/detail/photo/,,Masters Student,T. J. Moleta,Other,,java
Christen Kruger,Architecture,kruggs12@gmail.com,,,,https://media.licdn.com/media/AAEAAQAAAAAAAASZAAAAJDY3MTdiMzdmLWE1ZjMtNDU0Yi05ZGY0LTQ5NWYxYzFhYjM4YQ.jpg,,Masters Student,,Other,,"python,java"
Marc Aurel Schnabel,Architecture,marcaurel.schnabel@vuw.ac.nz,https://www.victoria.ac.nz/fad/about/staff/marcaurel-schnabel,,https://www.facebook.com/groups/urbandigitalics/about/,https://www.victoria.ac.nz/images/staffpics/marcaurel-schnabel.jpg,"Marc Aurel Schnabel is the Dean of the Faculty of Architecture and Design, Professor in Architectural Technology at the School of Architecture, Victoria University of Wellington, New Zealand and Visiting Professor atSchool of Architecture, Sheffield University. Trained as an Architect, he is leading research and education in the field of Architectural Technology.",Academic Staff,"Ocean Mercier, T. J. Moleta",Design,Virtual Reality Showcase,python
Kieran Carnegie,Engineering and Computer Science,kotarou@ecs.vuw.ac.nz,https://www.victoria.ac.nz/explore/postgraduate-subjects/computer-graphics/people#kieran-carnegie,,http://www.stuff.co.nz/sponsored-content/13040279/Enhancing-virtual-reality,https://www.victoria.ac.nz/__data/assets/image/0011/310700/varieties/ls_medium.jpg,"Kieran's research has him searching for a cure—a cure for simulator sickness, a phenomena where people feel sick when immersed in environments such as the computer-generated worlds of virtual reality (VR).",PhD Student,"Ryan Sumner, Taehyun Rhee, Andrew Chalmers, Lohit Petikam, Byron Mallett",Other,,java
Blaire Haslop,Architecture,,,,https://www.researchgate.net/publication/308609694_Digital_Decay,https://www.linkedin.com/in/blaire-haslop-742595a9/detail/photo/,,Masters Student,Marc Aurel Schnabel,Humanities and Social Sciences,Colliding Conversations 2,"python,java"
Byron Mallett,Media Design ,byron.mallett@vuw.ac.nz,https://www.victoria.ac.nz/design/about/staff/byron-mallett,,https://github.com/Mystfit,https://www.youtube.com/watch?v=Ddw2TsNeWr8,"Byron Mallett is a creative coder and designer who combines interaction design with animation, VR and audio/visual elements. He graduated from Victoria University's School of Design in 2011 with a degree in Design specializing in Digital Media, and completed his Masters of Design Innovation in 2015 focusing on Virtual Reality and musical interfaces.  Byron’s main interests revolve around the construction of tools that use Virtual Reality to help build media experiences.",Academic Staff,"Raqi Syed, Kieran Carnegie, Matt Plummer, Kevin Romond",Central Service Unit,,python
Andrew Chalmers,Computer Graphics,andrewchalmers26@gmail.com,https://ecs.victoria.ac.nz/Main/GradAndrewChalmers,,,https://ecs.victoria.ac.nz/foswiki/pub/Main/GradAndrewChalmers/AndrewChalmers.jpg,,PhD Student,"Taehyun Rhee, Lohit Petikam, Kieran Carnegie",Central Service Unit,,java
Sky Lo Tian Tian,Architecture,Skyduo@hotmail.com,https://www.victoria.ac.nz/architecture/research/current-phd-research/sky-lo-tian-tian,,http://www.nzvrara.nz/individuals/sky-lo-tian-tian/,http://www.nzvrara.nz/wp-content/uploads/2016/10/IMG_5839.jpg,,PhD Student,"Marc Aurel Schnabel, T. J. Moleta",Central Service Unit,,"python,java"
Bryden Frizzell,Software Engineering,bryden.frizzell@gmail.com,,,,,,Honours Student,,Architecture,,python
Philip Calvert,Information Managment,philip.calvert@vuw.ac.nz,https://www.victoria.ac.nz/sim/about/staff/philip-calvert,,,https://www.victoria.ac.nz/images/staffpics/philip-calvert.jpg,,Academic Staff,,Architecture,,java
Oli Wright,Architecture,Owright13@gmail.com,,,,,,Masters Student,,Architecture,,"python,java"
Christian Schott,Management,christian.schott@vuw.ac.nz,https://www.victoria.ac.nz/som/about/staff/christian-schott,,,https://www.victoria.ac.nz/images/staffpics/christian-schott.jpg,"Christian's research explores the tourist-environment interface with particular focus on the impacts of tourism and sustainable tourism development. This area of work has seen him engaged in research projects in the Sub-Antarctic, the Pacific and New Zealand.  He also studies the ‘youth’ life stage in the context of tourism, exploring aspects such as travel motivations and self-development of young adventurous travellers.  An extension of this research focus on young peoples’ experiences is Christian’s deep interest in tourism higher education, both from a conceptual and a practice perspective. ",Academic Staff,Andre Geldenhuis,Design,"LitAtlas,AR Rhino",python
Kevin Romond,Design,,http://computergraphics.ac.nz/people/,,https://www.linkedin.com/in/kromond/,http://computergraphics.ac.nz/assets/people/kevin_romond.jpg,,Academic Staff,"Raqi Syed, Miriam Ross, Neil Dodgson, Byron Mallett",Central Service Unit,Yasawa Island Virtual Tourism,java
Raqi Syed,Design,raqi.syed@vuw.ac.nz,https://www.victoria.ac.nz/design/about/staff/raqi-syed,,http://www.nzvrara.nz/individuals/raqi-syed/,https://www.victoria.ac.nz/images/staffpics/raqi-syed.jpg,"Raqi's research is primarily focused on the relationship between digital technology and narrativity. Her work as a Visual Effects Artist informs her critical writing about cinema and how new technologies continue to shape our contemporary understanding of storytelling. Her research pivots around the idea that new mediums like virtual reality must draw upon and extend the tradition of established media such as literature, theater, and film. ",Academic Staff,"Miriam Ross, Kevin Romond",Design,"LitAtlas,AR Rhino","python,java"
Joseph Hendren,"School of English, Film, Theatre and Media Studies",joseph.hendren@gmail.com,,,,,,Honours Student,Miriam Ross,Humanities and Social Sciences,"VR in Humanities,Until Jesse",python
Heidi Stedman,Engagement and Alumni,Heidi.Stedman@vuw.ac.nz,,,,http://www.victoria.ac.nz/images/staffpics/heidi-stedman.jpg,,Professional Staff,,Design,"Circle v Square,HDI24D,Until Jesse,Trash Praxis",java
Ocean Mercier,Te Kawa a Māui,ocean.mercier@vuw.ac.nz,https://www.victoria.ac.nz/maori/about/staff/ocean-mercier,,,https://www.victoria.ac.nz/images/staffpics/ocean-mercier.jpg,"Ocean has been at Te Kawa a Māui since 2005. Her teaching and research interests are varied, but her key focus is how mātauranga Māori and science connect and relate, particularly in educational contexts. She explores digital  technologies in advancing Indigenous and Māori interests.",Academic Staff,Marc Aurel Schnabel,Engineering and Computer Science,"Colliding Conversations 4,HDI24D,MRX","python,java"
Matt Plummer,Learning and Research Technology Team,matt.plummer@vuw.ac.nz,https://www.victoria.ac.nz/its/about/learning-and-research-technology-team,,https://twitter.com/matty_plumski,https://www.victoria.ac.nz/__data/assets/image/0008/294515/Matt-Plummer-Dir.jpg,"Matt’s background spans the arts and technology. He acts as a ‘digital interpreter’, working with researchers from different disciplines to utilise technology in innovative and transformative ways. He’s assisted with the development of a range of open source projects, augmented reality applications and research tools.",Professional Staff,"Miriam Ross, Neil Dodgson, Andre Geldenhuis",Engineering and Computer Science,"Colliding Conversations 1,HDI24D,MRX,Colliding Worlds,VRroom Driving Simulator,Landscape-scale AR,Training Novice Conductors",python
