{
  "builders": [
    {
      "type": "docker",
      "image": "python:3-slim",
      "commit": "true"
    }
  ],
  "provisioners": [
    {
      "type": "shell",
      "inline": ["mkdir /tmp/provision/"]
    },
    {
      "type": "file",
      "source": "back-end/requirements.txt",
      "destination": "/tmp/provision/requirements.txt"
    },
    {
      "type": "shell",
      "inline": ["cd /tmp/provision/", "pip install -r requirements.txt"]
    }
  ],
  "post-processors": [
    [
      {
        "type": "docker-tag",
        "repository": "registry.gitlab.com/connected-worlds/connected-worlds/back-end",
        "tag": "latest"
      }
    ]
  ]
}
